…
## # A tibble: 0 × 3
## # ℹ 3 variables: file <chr>, status <chr>, staged <lgl>

## # A tibble: 24 × 6
##    commit                         author time                files merge message
##  * <chr>                          <chr>  <dttm>              <int> <lgl> <chr>
##  1 da63d6e0ec0132bee2f5d623e25d2… fvafr… 2025-05-24 16:06:45    31 FALSE "Packa…
##  2 a7d1a996594131afb94ad098313f7… fvafr… 2025-05-24 16:06:23     2 FALSE "Addin…
##  3 e188a95b7a992cfa008abbde4e76c… fvafr… 2025-05-24 16:06:23     2 FALSE "Addin…
##  4 6fe8f672d53f27ee3c6a61933ddcf… fvafr… 2025-05-24 16:06:23     2 FALSE "Addin…
##  5 6df5754b783ceb0fe54c632529e10… fvafr… 2025-05-24 16:06:23     2 FALSE "Addin…
##  6 ee189344180f00b437aed481d0e5b… fvafr… 2025-05-24 16:06:23     2 FALSE "Addin…
##  7 5a26d11314df5e8ca4c9efadd0768… fvafr… 2025-05-24 16:06:23     2 FALSE "Addin…
##  8 2320e723a8bc1f2f3f308cbe541c9… fvafr… 2025-05-24 16:06:23     2 FALSE "Addin…
##  9 fe93e45208df508ca76949205f9d7… fvafr… 2025-05-24 16:06:23     1 FALSE "Addin…
## 10 b2e7b8cdf4ccf3311315171bbcfa6… fvafr… 2025-05-24 16:06:23     1 FALSE "Addin…
## # ℹ 14 more rows
…
I use

in one of my startup files to set the author information globally.

Maintaining Packages Using fakemake

Our brand new package myOtherPackage is checked into git already:

## # A tibble: 0 × 3
## # ℹ 3 variables: file <chr>, status <chr>, staged <lgl>

## # A tibble: 24 × 6
##    commit                         author time                files merge message
##  * <chr>                          <chr>  <dttm>              <int> <lgl> <chr>
##  1 dea9e6fd37ed6e2a01cef453fd014… fvafr… 2025-05-24 16:06:45    14 FALSE "Packa…
##  2 38ca370742ac34a69c1136549cac4… fvafr… 2025-05-24 16:06:45     2 FALSE "Addin…
##  3 4f2b15c7bfeae90804d597d2fec28… fvafr… 2025-05-24 16:06:45     2 FALSE "Addin…
##  4 0feadac4cadcfa0fa126f2749fa81… fvafr… 2025-05-24 16:06:45     2 FALSE "Addin…
##  5 bb6e35c049098946094beeebf33cd… fvafr… 2025-05-24 16:06:45     2 FALSE "Addin…
##  6 4ed65e066a0dd0dd4561bc4ed5807… fvafr… 2025-05-24 16:06:45     2 FALSE "Addin…
##  7 d80bfdb253189892a141e2a44d06e… fvafr… 2025-05-24 16:06:45     2 FALSE "Addin…
##  8 1fe823a969a7f9ccda6a7db770b13… fvafr… 2025-05-24 16:06:45     2 FALSE "Addin…
##  9 373bc8bfe09ece43798575de270be… fvafr… 2025-05-24 16:06:45     1 FALSE "Addin…
## 10 b5c91159889491026aab580b96469… fvafr… 2025-05-24 16:06:45     1 FALSE "Addin…
## # ℹ 14 more rows
…
